[gd_scene load_steps=7 format=2]

[ext_resource path="res://scenes/SceneManager/SceneManager.gd" type="Script" id=1]
[ext_resource path="res://scenes/SceneManager/white.png" type="Texture" id=2]
[ext_resource path="res://assets/fonts/BlackOpsOne-Regular.ttf" type="DynamicFontData" id=3]
[ext_resource path="res://scenes/SceneManager/Fade_In.tres" type="Animation" id=4]
[ext_resource path="res://scenes/SceneManager/Fade_Out.tres" type="Animation" id=5]

[sub_resource type="DynamicFont" id=1]

size = 80
outline_size = 0
outline_color = Color( 1, 1, 1, 1 )
use_mipmaps = false
use_filter = false
font_data = ExtResource( 3 )
_sections_unfolded = [ "Font", "Resource", "Settings" ]

[node name="SM_Canvas" type="CanvasLayer"]
layer = 128
offset = Vector2( 0, 0 )
rotation = 0.0
scale = Vector2( 1, 1 )
transform = Transform2D( 1, 0, 0, 1, 0, 0 )
script = ExtResource( 1 )

[node name="SceneFader" type="TextureRect" parent="."]
visible = false
modulate = Color( 0.196078, 0.196078, 0.196078, 0 )
anchor_left = 0.0
anchor_top = 0.0
anchor_right = 1.0
anchor_bottom = 1.0
rect_pivot_offset = Vector2( 0, 0 )
rect_clip_content = false
mouse_filter = 1
mouse_default_cursor_shape = 0
size_flags_horizontal = 1
size_flags_vertical = 1
texture = ExtResource( 2 )
expand = true
stretch_mode = 0
_sections_unfolded = [ "Anchor", "Rect", "Visibility" ]

[node name="SM_ProgBar" type="ProgressBar" parent="SceneFader"]
visible = false
modulate = Color( 1, 1, 1, 0 )
anchor_left = 0.5
anchor_top = 0.5
anchor_right = 0.5
anchor_bottom = 0.5
margin_left = -260.0
margin_top = -20.0
margin_right = 260.0
margin_bottom = 20.0
rect_pivot_offset = Vector2( 0, 0 )
rect_clip_content = false
mouse_filter = 0
mouse_default_cursor_shape = 0
size_flags_horizontal = 1
size_flags_vertical = 0
custom_fonts/font = SubResource( 1 )
min_value = 0.0
max_value = 100.0
step = 1.0
page = 0.0
value = 0.0
exp_edit = false
rounded = false
allow_greater = false
allow_lesser = false
percent_visible = true
_sections_unfolded = [ "Visibility", "custom_fonts", "custom_fonts/font" ]

[node name="AnimationPlayer" type="AnimationPlayer" parent="SceneFader"]
root_node = NodePath("..")
autoplay = ""
playback_process_mode = 1
playback_default_blend_time = 0.0
playback_speed = 1.0
anims/Fade_In = ExtResource( 4 )
anims/Fade_Out = ExtResource( 5 )
blend_times = [  ]

